{
    "name":"Internet shop Dva Gusya",
    "short_name":"Dva gusya",
    "description":"Shop of child goods",
    "icons":[
        {"src": "../images/icons/app-icon-48x48.png",
            "sizes": "48x48",
            "type": "image/png"},
         {"src": "../images/icons/app-icon-57x57.png",
                "sizes": "57x57",
                "type": "image/png"},
         {"src": "../images/icons/app-icon-60x60.png",
                    "sizes": "60x60",
                    "type": "image/png"},
        {"src": "../images/icons/app-icon-72x72.png",
                        "sizes": "72x72",
                        "type": "image/png"},  
        {"src": "../images/icons/app-icon-96x96.png",
              "sizes": "96x96",
              "type": "image/png"},
       {"src": "../images/icons/app-icon-114x114.png",
                  "sizes": "114x114",
                "type": "image/png"},
       {"src": "../images/icons/app-icon-120x120.png",
               "sizes": "120x120",
                "type": "image/png"},
         {"src": "../images/icons/app-icon-144x144.png",
             "sizes": "144x144",
                "type": "image/png"},
           {"src": "../images/icons/app-icon-152x152.png",
               "sizes": "152x152",
              "type": "image/png"},
        {"src": "../images/icons/app-icon-180x180.png",
              "sizes": "180x180",
              "type": "image/png"},
       {"src": "../images/icons/app-icon-192x192.png",
            "sizes": "192x192",
               "type": "image/png"},
        {"src": "../images/icons/app-icon-256x256.png",
               "sizes": "256x256",
             "type": "image/png"},
         {"src": "../images/icons/app-icon-384x384.png",
                   "sizes": "384x384",
                   "type": "image/png"},
             {"src": "../images/icons/app-icon-512x512.png",
                        "sizes": "512x512",
                          "type": "image/png"}
    ],
    "start_url":"./index.html",

    "display":"fullscreen",
    "orientation":"portrait-primary",
    "backgroun_color":"#B12A34",
    "theme_color":"#3f51b5",
    "dir":"ltr",
    "lang":"en-US"
}